{
    "schema_authenticateStudent":{
    "$schema": "https://json-schema.org/draft/2019-09/schema",
    "$id": "http://example.com/example.json",
    "type": "object",
    "default": {},
    "title": "Root Schema",
    "required": [
        "accessToken",
        "refreshToken"
    ],
    "examples": [{
        "accessToken": "eyJhbGciOiJIUzUxMiJ9.eyJzdWIiOiJlYjQzNzVmYS1mYzBiLTQ4MmYtYWM3OC1kNTJkNjRiNzljZjEiLCJpYXQiOjE2NTg5MDYxMzQsImV4cCI6MTY1ODk5MjUzNH0.pAHjE4ebqC5EZ_bYCi8a6M_dKSgcD6BDZkoI61YcKYzjDcwWUEC1ym14S78zJiTwSTK0Xb7-HRrlCWSNtWqpmg",
        "refreshToken": "eyJhbGciOiJIUzUxMiJ9.eyJzdWIiOiJlYjQzNzVmYS1mYzBiLTQ4MmYtYWM3OC1kNTJkNjRiNzljZjEiLCJpYXQiOjE2NTg5MDYxMzQsImV4cCI6MTY2MTQ5ODEzNH0.jJC1G9QlhHZDOEAyjoxlBbHYnhLBv9qGCT3kGD030sg1byZbRglnng32ZtugZoinhuU4GeiSqlT3ZngDCHLaww"
    }]
    },
    "schema_getStudentSettings":{
    "$schema": "https://json-schema.org/draft/2019-09/schema",
    "$id": "http://example.com/example.json",
    "type": "object",
    "default": {},
    "title": "Root Schema",
    "required": [
        "id",
        "userId",
        "avatar",
        "firstName",
        "lastName",
        "job",
        "location",
        "company",
        "website",
        "biography",
        "direction",
        "experience",
        "level",
        "industry",
        "role",
        "employment",
        "education",
        "year",
        "tags"
    ],
    "examples": [{
        "id": "7108354a-aacb-402d-911a-e89815347bdd",
        "userId": "eb4375fa-fc0b-482f-ac78-d52d64b79cf1",
        "avatar": null,
        "firstName": "Viktoria",
        "lastName": "Riashyna",
        "job": "",
        "location": "American Samoa",
        "company": "",
        "website": "",
        "biography": "",
        "direction": "Developer",
        "experience": 1,
        "level": "Intermediate",
        "industry": "Consulting",
        "role": "Full-stack Game Dev",
        "employment": "Employee",
        "education": "Bachelor's degree",
        "year": 1950,
        "tags": []
    }]
    },
    "schema_startCourse":{
    "$schema": "https://json-schema.org/draft/2019-09/schema",
    "$id": "http://example.com/example.json",
    "type": "object",
    "default": {},
    "title": "Root Schema",
    "required": [
        "id",
        "userId",
        "courseId"
    ],
    "examples": [{
        "id": "fdbe0a57-20cb-4ba8-a1e1-87347303fb5c",
        "userId": "eb4375fa-fc0b-482f-ac78-d52d64b79cf1",
        "courseId": "cf4cf7e7-362e-4246-bd60-87486cc51f48"
    }]
    },
    "schema_pathsForStudent":{
    "$schema": "https://json-schema.org/draft/2019-09/schema",
    "$id": "http://example.com/example.json",
    "type": "array",
    "default": [],
    "title": "Root Schema",
    "items": {
        "type": "object",
        "title": "A Schema",
        "required": [
            "id",
            "name",
            "courses",
            "logoSrc",
            "duration"
        ],
        "examples": [{
            "id": "1a87a655-331c-4995-a517-3055256c3fdd",
            "name": "et cumque eum",
            "courses": 1,
            "logoSrc": "https://i.imgur.com/v69nP6w.png",
            "duration": 15
        },
        {
            "id": "36f24b3b-b753-42ac-b37b-e21775d3240f",
            "name": "consequatur dolorem illo",
            "courses": 1,
            "logoSrc": "https://i.imgur.com/v69nP6w.png",
            "duration": 15
        },
        {
            "id": "5a0e7c6a-2cae-4d7e-94d0-71da015948aa",
            "name": "SAMURAI",
            "courses": 1,
            "logoSrc": "https://i.imgur.com/oYQDlZW.png",
            "duration": 563
        },
        {
            "id": "79b0154a-7c1a-443d-8cfa-cc2d840d7c89",
            "name": "15s path",
            "courses": 1,
            "logoSrc": "https://i.imgur.com/gQ5VLem.png",
            "duration": 15
        },
        {
            "id": "8872d037-de9a-44b6-8a00-6f4b1739539c",
            "name": "delectus labore minus",
            "courses": 1,
            "logoSrc": "https://i.imgur.com/F00TfCT.png",
            "duration": 15
        },
        {
            "id": "c83d5bba-ed75-452a-83e4-1453a9410afa",
            "name": "My test path",
            "courses": 2,
            "logoSrc": "https://i.imgur.com/gQ5VLem.png",
            "duration": 626
        },
        {
            "id": "dafde017-d184-41cd-be96-0cac2d0e475e",
            "name": "modi sit dolore",
            "courses": 1,
            "logoSrc": "https://i.imgur.com/BEsgQbX.png",
            "duration": 15
        },
        {
            "id": "ece9c228-f3c6-4e28-ae3f-7addebbd6e43",
            "name": "dolorem aut tenetur",
            "courses": 1,
            "logoSrc": "https://i.imgur.com/RM1NDFD.png?1",
            "duration": 15
        }]
    },
    "examples": [
        [{
            "id": "1a87a655-331c-4995-a517-3055256c3fdd",
            "name": "et cumque eum",
            "courses": 1,
            "logoSrc": "https://i.imgur.com/v69nP6w.png",
            "duration": 15
        },
        {
            "id": "36f24b3b-b753-42ac-b37b-e21775d3240f",
            "name": "consequatur dolorem illo",
            "courses": 1,
            "logoSrc": "https://i.imgur.com/v69nP6w.png",
            "duration": 15
        },
        {
            "id": "5a0e7c6a-2cae-4d7e-94d0-71da015948aa",
            "name": "SAMURAI",
            "courses": 1,
            "logoSrc": "https://i.imgur.com/oYQDlZW.png",
            "duration": 563
        },
        {
            "id": "79b0154a-7c1a-443d-8cfa-cc2d840d7c89",
            "name": "15s path",
            "courses": 1,
            "logoSrc": "https://i.imgur.com/gQ5VLem.png",
            "duration": 15
        },
        {
            "id": "8872d037-de9a-44b6-8a00-6f4b1739539c",
            "name": "delectus labore minus",
            "courses": 1,
            "logoSrc": "https://i.imgur.com/F00TfCT.png",
            "duration": 15
        },
        {
            "id": "c83d5bba-ed75-452a-83e4-1453a9410afa",
            "name": "My test path",
            "courses": 2,
            "logoSrc": "https://i.imgur.com/gQ5VLem.png",
            "duration": 626
        },
        {
            "id": "dafde017-d184-41cd-be96-0cac2d0e475e",
            "name": "modi sit dolore",
            "courses": 1,
            "logoSrc": "https://i.imgur.com/BEsgQbX.png",
            "duration": 15
        },
        {
            "id": "ece9c228-f3c6-4e28-ae3f-7addebbd6e43",
            "name": "dolorem aut tenetur",
            "courses": 1,
            "logoSrc": "https://i.imgur.com/RM1NDFD.png?1",
            "duration": 15
        }]
    ]

    }

}